[
    {
        "url": "http://example.com",
        "data": {
            "Plugins": [
                {
                    "name": "Wappalyzer",
                    "version": "1",
                    "results": [
                        "Azure CDN",
                        "Amazon Web Services",
                        "Linux",
                        "Amazon ECS",
                        "Docker"
                    ]
                },
                {
                    "name": "Screenshot",
                    "version": "1",
                    "results": {
                        "driver": "FireFox (gecko)",
                        "path": "screenshots/http:__example.com.png"
                    }
                },
                {
                    "name": "Skeleton",
                    "version": "0",
                    "results": "Skeleton Plugin Executed For Target: http://example.com"
                },
                {
                    "name": "Robots",
                    "version": "1",
                    "results": "Not Found (Non 200 Response)"
                },
                {
                    "name": "SiteInfo",
                    "version": "1",
                    "results": {
                        "title": "Example Domain",
                        "headers": {
                            "Content-Encoding": "gzip",
                            "Age": "532384",
                            "Cache-Control": "max-age=604800",
                            "Content-Type": "text/html; charset=UTF-8",
                            "Date": "Sun, 05 Apr 2020 20:55:40 GMT",
                            "Etag": "\"3147526947+gzip\"",
                            "Expires": "Sun, 12 Apr 2020 20:55:40 GMT",
                            "Last-Modified": "Thu, 17 Oct 2019 07:18:26 GMT",
                            "Server": "ECS (sec/9795)",
                            "Vary": "Accept-Encoding",
                            "X-Cache": "HIT",
                            "Content-Length": "648"
                        }
                    }
                }
            ]
        }
    }
]